2 - Rasters in R
…
zion_transect = zion_transect %>%
  group_by(id) %>%
  mutate(dist = st_distance(geometry)[, 1]) 
zion_transect

## Simple feature collection with 257 features and 2 fields
## Geometry type: POINT
## Dimension:     XY
## Bounding box:  xmin: -113.2 ymin: 37.2 xmax: -112.9 ymax: 37.45
## Geodetic CRS:  WGS 84
## # A tibble: 257 × 3
## # Groups:   id [1]
##       id             geometry  dist
##  * <int>          <POINT [°]>   [m]
##  1     1       (-113.2 37.45)    0 
##  2     1 (-113.1988 37.44902)  150.
##  3     1 (-113.1976 37.44805)  300.
##  4     1 (-113.1965 37.44707)  450.
##  5     1  (-113.1953 37.4461)  600.
##  6     1 (-113.1941 37.44512)  750.
##  7     1 (-113.1929 37.44415)  901.
##  8     1 (-113.1918 37.44317) 1051.
##  9     1  (-113.1906 37.4422) 1201.
## 10     1 (-113.1894 37.44122) 1351.
## # … with 247 more rows
…
